HumanSays:,RobotSays:
HumanSays:,RobotSays:
What time is it?,getTIME
What time do you have?,getTIME
Got the time?,getTIME
When is it?,getTIME
What day is it?,getDATE
What is the date?,getDATE
Do you know what time it is?,getTIME
Do you have the time,getTIME
IDKnull,I don't know about. I am still learning. Can you try to rephrase?
IDKnull,I am not sure. I will ask my Master to teach it to me so I can answer it next time.
IDKnull,Can you try rephrasing that please?
IDKnull,I'm not sure about that. But I will ask my master to teach me.
IDKnull,Is there a different way you can ask that?
IDKnull,I don't have a response for that. I am still learning. 
IDKnull,I will have to give that some thought. I will learn and answer your queries soon.
IDKnull,I don't really know what you are asking. It is out of syllabus question :)
IDKnull,There are some things I just don't know about yet.
IDKnull,I'm not an expert on that. I will learn from my master.
Nothing,What?
Nothing,I think you hit the wrong key...
Nothing,What did you want to ask?
Nothing,Let's talk about something.
Nothing,One more time Please? I am still learning. I will be better.
Who are you?,I am a Chatbot. My name is Jarvis.
Who are you?,I am a Python powered ChatBot. Jarvis
Who are you?,I am a Jarvis running on Python and a dash of artificial intelligence.
Hello,Hello!!
Hi,Hey!
Greetings,Greetings for the day!
Hey,"Hello, how are you?"
What's up?,Nothin much! How about you?
Who are you?,I am Jarvis. I am AI powered Chatbot.
What is your name?,Jarvis.
What can you do?,I can help you regarding questions related to RMCC.
Whats your profession?,I am a professional Chatbot.
What is your favourite Series?,Dark
What is your favourite Movie?,The Imitation Game.
What is your favourite Food?,I love Punjabi Food
What is your favourite Series?,Narcos
How do you look like?,"<img src=""https://terrigen-cdn-dev.marvel.com/content/prod/1x/002irm_ons_mas_mob_01_0.jpg"" style=""width:300px;height:200px;"">"
Do you have a website?,"<a href=""https://www.facebook.com/eNR.NuMb"" target=""_blank"">My Masters Website</a>"
Are you sure?,Maybe :)
Hello,"Hello , how are you?"
kya re,Sorry i dont understand that.
What is your name ?,Chatbot. Jarvis the Chatbot.
Hello,Hey!!
Hi,"Hi , how are you?"
Whatsup,Nothing much .. How about you?
yo,Yo!!!
are you sure?,"Maybe , not 100% confident"
website,"<a href=""https://www.facebook.com/eNR.NuMb"" target=""_blank"">My Masters Website</a>"
Hello,Hi
Hello,Hey
Hello,Hello
What is your website?,"<a href=""https://www.facebook.com/eNR.NuMb"" target=""_blank"">My Masters Website</a>"
What are you doing?,I am answering all your queries
Who is your master?,Its not Tony Stark <br> It is Akshay Desai
What is link to product support?,"<a target=""_blank"" href=""https://www.amdocs-support.com/aps?id=aps_homepage"">Click here for Amdocs Product Support Page</a>"
Good,Glad to hear that.
Bad,Everything is going to be fine. Dony worry
How are you?,Im Great. Thanks for asking
Who teach you?,My Master taught me
What are your timings?,I work 24 x 7.
Hows it going with you?,Its going great.
Hows it going ?,I am good. How is it going with you ?
Can you help me ?,Yes sure. How can I help you ?
Where can I fill my timesheet?,"<a target=""_blank"" href=""https://wh/wh/WHMain.asp"">Click here to Fill Your timesheet</a>"
What is Micro-Service?,"Microservices - also known as the microservice architecture - is an architectural style that structures an application as a collection of services that are
<br>
Highly maintainable and testable<br>
Loosely coupled<br>
Independently deployable<br>
Organized around business capabilities<br>
Owned by a small team<br>

<a target=""_blank"" href=""https://jam4.sapjam.com/groups/w2S8fyWpZrfbQEDK0u3Adu/overview_page/hWTik1FuwTL3VznFUw0c1K"">Microservices Explained. Click here</a>"
What is RTB?,"RTB is Real time billing. <br> <a target=""_blank"" href=""https://teams.microsoft.com/l/team/19%3ab6bd9739b24b48109ff870ce0bc6aadf%40thread.tacv2/conversations?groupId=aab4ab84-68bd-4ccd-a9b6-7a63b3ee31da&tenantId=c8eca3ca-1276-46d5-9d9d-a0f2a028920f"">Click here to get More details on Teams Group.</a>"
Where can I learn micro services?,"<a target=""_blank"" href=""https://amdocs.sharepoint.com/:v:/s/MaestroSolution/EUUrMD1O7hZJiHIkfX1TItUBUfjiB2E7iCJ9QLeE5tC3gQ?e=tOXV51"">Microservices Explained. Click here to learn basics</a>"
Who is the CEO?,Shuky Sheffer
Who do you work for ?,"RMCC Department, Amdocs"
Who is your inspiration?,Bruce Lee
What is going on?,Nothing much.. I am trying to assist you!
Where can I learn about RTB?,"<a target=""_blank"" href=""https://teams.microsoft.com/l/team/19%3ab6bd9739b24b48109ff870ce0bc6aadf%40thread.tacv2/conversations?groupId=aab4ab84-68bd-4ccd-a9b6-7a63b3ee31da&tenantId=c8eca3ca-1276-46d5-9d9d-a0f2a028920f"">Click here to get More details on Teams Group.</a>"
Where can I learn RTB?,"<a target=""_blank"" href=""https://teams.microsoft.com/l/team/19%3ab6bd9739b24b48109ff870ce0bc6aadf%40thread.tacv2/conversations?groupId=aab4ab84-68bd-4ccd-a9b6-7a63b3ee31da&tenantId=c8eca3ca-1276-46d5-9d9d-a0f2a028920f"">Click here to get More details on Teams Group.</a>"
Where can I learn about micro services?,"<a target=""_blank"" href=""https://amdocs.sharepoint.com/:v:/s/MaestroSolution/EUUrMD1O7hZJiHIkfX1TItUBUfjiB2E7iCJ9QLeE5tC3gQ?e=tOXV51"">Microservices Explained. Click here to learn basics</a>"
Who can help me with IT Issues?,"<a target=""_blank"" href=""http://solveitnow/"">Raise a ticket here</a>"
Where can I raise ticket?,"<a target=""_blank"" href=""http://solveitnow/"">Raise a ticket here</a>"
Portal link,"<a target=""_blank"" href=""https://amdocsprodmain.service-now.com/one_portal"">Click here</a>"
Please share portal link,"<a target=""_blank"" href=""https://amdocsprodmain.service-now.com/one_portal"">Click here</a>"
What is AIDE?,Amdocs IDE. It is amdocs proprietary plugin
Document Centre link,"<a target=""_blank"" href=""http://documentcenter/"">Click here for Document Center link</a>"
Where can I upload documents?,"Upload Documents on Document Center.<br> <a target=""_blank"" href=""http://documentcenter/"">Click here for Document Center link</a>"
Are you bot?,Yes. AI Powered Chatbot
Which languages do you speak?,English and Binary.
Do you know any other language?,Yes.I read Binary.
Bye,"Bye. <br>Are you happy with my response?<br><a class=""chatSuggest"" onclick=""$(this).hide(); chatSuggest('Yes, i am happy with responses')"";>Yes</a><br<a class=""chatSuggest"" onclick=""$(this).hide(); chatSuggest('No, I am not happy with responses')"";>No</a><br>"
"Yes, i am happy with responses",I am glad I helped you
"No, I am not happy with responses",I am sorry. I am still learning. I will learn new things and get better.
Okay,Hm..
Ok.,Hm..
Have a great day,You too!
Where can I report my timesheet?,"<a target=""_blank"" href=""https://wh/wh/WHMain.asp"">Click here to Fill Your timesheet</a>"
i am good,good to hear that
okay,hm..
why cant you tell me ?,because i am still learning
Null Pointer,Check your objects are assigned are correct?
Hello INTRODUCTION,Hey there! I am Jarvis. How many I help you ?
